{"chemicals":[{"archived_date":null,"archived_reason":null,"box_id":null,"box_number":null,"category":"Cleaners","date_added":"2025-10-19T21:57:38.374375","description":"Cleaning Solvent","expected_delivery_date":null,"expiration_date":null,"id":1,"is_archived":false,"kit_id":null,"kit_name":null,"location":"Chemical Storage A","lot_number":"LOT001","lot_sequence":3,"manufacturer":"ChemCo","minimum_stock_level":null,"needs_reorder":false,"notes":null,"parent_lot_number":null,"part_number":"CHEM001","quantity":2,"reorder_date":null,"reorder_status":"not_needed","status":"available","unit":"gallons","warehouse_id":1,"warehouse_name":"Main Warehouse"},{"archived_date":null,"archived_reason":null,"box_id":null,"box_number":null,"category":"Lubricants","date_added":"2025-10-19T21:57:38.374375","description":"Lubricant","expected_delivery_date":null,"expiration_date":null,"id":2,"is_archived":false,"kit_id":null,"kit_name":null,"location":"Chemical Storage B","lot_number":"LOT002","lot_sequence":0,"manufacturer":"LubeCo","minimum_stock_level":null,"needs_reorder":false,"notes":null,"parent_lot_number":null,"part_number":"CHEM002","quantity":5,"reorder_date":null,"reorder_status":"not_needed","status":"available","unit":"quarts","warehouse_id":1,"warehouse_name":"Main Warehouse"},{"archived_date":null,"archived_reason":null,"box_id":null,"box_number":null,"category":"Sealants","date_added":"2025-10-19T23:49:00.116782","description":"PR-1422 Class B Sealant - Fuel Tank Sealer","expected_delivery_date":null,"expiration_date":"2026-03-15T00:00:00","id":3,"is_archived":false,"kit_id":null,"kit_name":null,"location":"Chemical Storage - Bay 1","lot_number":"LOT-2024-001","lot_sequence":2,"manufacturer":"PPG Aerospace","minimum_stock_level":null,"needs_reorder":false,"notes":null,"parent_lot_number":null,"part_number":"PR-1422-B2","quantity":9,"reorder_date":null,"reorder_status":"not_needed","status":"available","unit":"tubes","warehouse_id":1,"warehouse_name":"Main Warehouse"},{"archived_date":null,"archived_reason":null,"box_id":null,"box_number":null,"category":"Sealants","date_added":"2025-10-19T23:49:00.120960","description":"PR-1440 Class B Sealant - Faying Surface","expected_delivery_date":null,"expiration_date":"2026-04-20T00:00:00","id":4,"is_archived":false,"kit_id":null,"kit_name":null,"location":"Chemical Storage - Bay 1","lot_number":"LOT-2024-002","lot_sequence":2,"manufacturer":"PPG Aerospace","minimum_stock_level":null,"needs_reorder":false,"notes":null,"parent_lot_number":null,"part_number":"PR-1440-B2","quantity":6,"reorder_date":null,"reorder_status":"not_needed","status":"available","unit":"tubes","warehouse_id":1,"warehouse_name":"Main Warehouse"},{"archived_date":null,"archived_reason":null,"box_id":null,"box_number":null,"category":"Sealants","date_added":"2025-10-19T23:49:00.122882","description":"PR-1776 Class B Sealant - Corrosion Inhibiting","expected_delivery_date":null,"expiration_date":"2026-02-28T00:00:00","id":5,"is_archived":false,"kit_id":null,"kit_name":null,"location":"Chemical Storage - Bay 1","lot_number":"LOT-2024-003","lot_sequence":1,"manufacturer":"PPG Aerospace","minimum_stock_level":null,"needs_reorder":false,"notes":null,"parent_lot_number":null,"part_number":"PR-1776-B2","quantity":10,"reorder_date":null,"reorder_status":"not_needed","status":"available","unit":"tubes","warehouse_id":1,"warehouse_name":"Main Warehouse"}],"pagination":{"has_next":true,"has_prev":false,"page":1,"pages":13,"per_page":5,"total":63}}
